mean_NN,SD_NN,VLF_power,LF_power,HF_power,LF_HF_ratio,TINN,baby_ID,start_time_secs
1477.79702970297,1964.80341537917,260262547.83465,9072540.70462445,90539.04301455,100.20583830521,62.5,sub-6ff34f4c-994d-47bc-bae9-a254d9a17be8_eeg,10.025
1366.14155251142,396.361112178175,755832.314179619,418706.177969283,5985.90157935729,69.9487240841404,70.3125,sub-6ff34f4c-994d-47bc-bae9-a254d9a17be8_eeg,160.065
1382.89351851852,340.977845225374,392973.394737981,294418.792229313,4344.51898439519,67.7678687299602,85.9375,sub-6ff34f4c-994d-47bc-bae9-a254d9a17be8_eeg,309.805
1417.25352112676,570.537930170717,1730000.85494748,967401.497534522,11855.2298501755,81.6012434816017,101.5625,sub-6ff34f4c-994d-47bc-bae9-a254d9a17be8_eeg,460.49
1983.02631578947,3465.13558491143,296344205.049931,11179540.0456266,24847.1722231779,449.932086645986,132.8125,sub-6ff34f4c-994d-47bc-bae9-a254d9a17be8_eeg,609.75
2197.18518518519,4297.14082344241,818969769.508023,17427305.5828139,110259.58275245,158.057060871897,93.75,sub-6ff34f4c-994d-47bc-bae9-a254d9a17be8_eeg,762.365
1491.1,1952.77821417816,685692.869816969,761341.846378374,155627.527132795,4.89207700208928,85.9375,sub-6ff34f4c-994d-47bc-bae9-a254d9a17be8_eeg,911.17
1406.34433962264,423.73364086868,951641.202200759,556167.758474988,3799.41639215501,146.382418000658,85.9375,sub-6ff34f4c-994d-47bc-bae9-a254d9a17be8_eeg,1060.315
1436.50717703349,465.721370972961,1132087.00881776,632643.247973371,6040.64947369103,104.730998004227,78.125,sub-6ff34f4c-994d-47bc-bae9-a254d9a17be8_eeg,1209.39
1388.6976744186,250.872639140526,179811.511684111,67804.5408139229,3154.24441774547,21.4962862207067,54.6875,sub-6ff34f4c-994d-47bc-bae9-a254d9a17be8_eeg,1359.78
1590.55555555556,1979.8566956881,252604281.808567,7008196.59670908,20924.6174883743,334.925912055637,54.6875,sub-6ff34f4c-994d-47bc-bae9-a254d9a17be8_eeg,1509.62
1627.9347826087,2091.94077434657,217423760.807699,8506536.19089062,26913.6644427417,316.067557763757,46.875,sub-6ff34f4c-994d-47bc-bae9-a254d9a17be8_eeg,1659.705
1474.63054187192,1293.3182192679,66828904.7846389,5421567.36302069,46780.7346167688,115.893164300103,93.75,sub-6ff34f4c-994d-47bc-bae9-a254d9a17be8_eeg,1810.235
1464.36274509804,1173.68019820958,55703845.262535,4142589.64342085,39594.2664900845,104.62599791963,109.375,sub-6ff34f4c-994d-47bc-bae9-a254d9a17be8_eeg,1960.525
1431.81818181818,345.669355485381,681394.002284305,289168.168490057,3716.64860304886,77.8034727988127,85.9375,sub-6ff34f4c-994d-47bc-bae9-a254d9a17be8_eeg,2109.585
1475.27227722772,462.088111737057,849694.974671273,562574.409616115,6794.10396519006,82.8033266047287,70.3125,sub-6ff34f4c-994d-47bc-bae9-a254d9a17be8_eeg,2260.625
1463.35784313725,453.860967391374,394017.840142787,568568.731340906,7257.69172021424,78.3401601031523,70.3125,sub-6ff34f4c-994d-47bc-bae9-a254d9a17be8_eeg,2410.19
1446.32850241546,391.566183458594,392380.173511915,443724.819242907,4939.21701380588,89.8370770109162,62.5,sub-6ff34f4c-994d-47bc-bae9-a254d9a17be8_eeg,2559.98
1495.15,524.352893847676,846090.376223834,704942.163030813,10187.4896158156,69.1968472720132,46.875,sub-6ff34f4c-994d-47bc-bae9-a254d9a17be8_eeg,2710.06
1527.57653061224,596.870573317631,1114000.98858549,893521.690533882,12189.1025971775,73.3049610018696,54.6875,sub-6ff34f4c-994d-47bc-bae9-a254d9a17be8_eeg,2859.37
1535.15463917526,610.291043117931,1005174.02816679,941789.44276133,10160.2309998804,92.6937037920123,62.5,sub-6ff34f4c-994d-47bc-bae9-a254d9a17be8_eeg,3010.43
1522.67857142857,584.763238304012,515599.613802338,899342.373995453,9192.90651628429,97.8300358436541,78.125,sub-6ff34f4c-994d-47bc-bae9-a254d9a17be8_eeg,3160.085
1469.26108374384,444.409382016809,585553.731422955,521728.297777288,6570.46334066782,79.4050998729505,62.5,sub-6ff34f4c-994d-47bc-bae9-a254d9a17be8_eeg,3310.5
1453.42233009709,387.278259182619,714932.201359789,336313.845857611,7066.45153080663,47.5930308714961,54.6875,sub-6ff34f4c-994d-47bc-bae9-a254d9a17be8_eeg,3459.87
1463.23529411765,402.158368346287,377526.966902619,366498.249537717,7449.82039100576,49.1955819472096,62.5,sub-6ff34f4c-994d-47bc-bae9-a254d9a17be8_eeg,3610.085
1453.19512195122,369.976696372138,286274.13612988,314468.952440605,5994.60301856094,52.4586784924578,54.6875,sub-6ff34f4c-994d-47bc-bae9-a254d9a17be8_eeg,3760.595
1447.31884057971,373.314899718786,399535.430099569,325121.529402981,5598.27558518681,58.0752991623458,62.5,sub-6ff34f4c-994d-47bc-bae9-a254d9a17be8_eeg,3909.905
1454.53658536585,379.246744241391,348124.871696118,338672.60961339,5890.8932099279,57.490875754228,70.3125,sub-6ff34f4c-994d-47bc-bae9-a254d9a17be8_eeg,4059.83
1459.65853658537,383.362804265002,371872.888120231,310932.153296823,6864.21862143326,45.2975306360361,62.5,sub-6ff34f4c-994d-47bc-bae9-a254d9a17be8_eeg,4209.5
1441.44927536232,369.659481311191,402431.458052755,285855.243323402,6318.19412084635,45.2431878248638,62.5,sub-6ff34f4c-994d-47bc-bae9-a254d9a17be8_eeg,4360.235
1423.69047619048,298.453468927075,226309.827538314,173457.46726439,4313.96913061137,40.2083237067133,62.5,sub-6ff34f4c-994d-47bc-bae9-a254d9a17be8_eeg,4510.05
1433.46889952153,313.688969300488,236168.581847846,206386.878470437,4245.62949047884,48.6116084630738,70.3125,sub-6ff34f4c-994d-47bc-bae9-a254d9a17be8_eeg,4659.91
1425,308.944800817481,242439.674862112,206264.027058375,4173.33096804797,49.4243156456035,70.3125,sub-6ff34f4c-994d-47bc-bae9-a254d9a17be8_eeg,4810.325
1414.69339622642,293.260435108089,194804.715885944,176377.316557267,4422.67204707516,39.8802612266741,62.5,sub-6ff34f4c-994d-47bc-bae9-a254d9a17be8_eeg,4959.505
1431.48325358852,338.805453816076,288255.981166743,236319.404969406,5620.59984698677,42.0452285170413,62.5,sub-6ff34f4c-994d-47bc-bae9-a254d9a17be8_eeg,5109.575
1470.14705882353,449.956186089461,1108171.92585613,464182.819251081,7213.08353525238,64.3528966471119,62.5,sub-6ff34f4c-994d-47bc-bae9-a254d9a17be8_eeg,5259.42
1485.32338308458,469.02001012803,1296567.07945514,498707.405464799,7270.97402034205,68.5888031052733,62.5,sub-6ff34f4c-994d-47bc-bae9-a254d9a17be8_eeg,5410.075
1444.08653846154,353.934247300419,423268.6650042,305962.809438455,5381.79002265344,56.8514951624966,70.3125,sub-6ff34f4c-994d-47bc-bae9-a254d9a17be8_eeg,5559.33
1446.77184466019,411.449124239627,406833.895016744,426106.042707536,6621.20218239406,64.3547849725179,78.125,sub-6ff34f4c-994d-47bc-bae9-a254d9a17be8_eeg,5710.07
1502.11055276382,500.293669151557,645605.593521688,638695.294284168,8330.22891318733,76.6719979655144,85.9375,sub-6ff34f4c-994d-47bc-bae9-a254d9a17be8_eeg,5859.7
1480.71782178218,436.529853519936,542032.771775961,416415.251653148,7402.56812903876,56.2528090784651,85.9375,sub-6ff34f4c-994d-47bc-bae9-a254d9a17be8_eeg,6010.32
1467.13235294118,348.190589806652,190103.41865921,239479.887285183,6172.03203490744,38.8008172884952,78.125,sub-6ff34f4c-994d-47bc-bae9-a254d9a17be8_eeg,6159.935
1646.31868131868,1316.7005967254,32713385.2498978,5272774.95400059,30547.8518973691,172.607061593575,156.25,sub-6ff34f4c-994d-47bc-bae9-a254d9a17be8_eeg,6309.425
1709.77142857143,1481.86768775305,56865625.1263919,5959381.36578076,35709.3050352782,166.885951991878,109.375,sub-6ff34f4c-994d-47bc-bae9-a254d9a17be8_eeg,6460.535
1493.90547263682,692.224707750236,9119227.81289556,1435113.29235793,7165.95518747571,200.268248239417,125,sub-6ff34f4c-994d-47bc-bae9-a254d9a17be8_eeg,6609.055
1454.00485436893,515.621202402077,2464085.22339332,655964.843508059,4882.58430567001,134.347878590914,125,sub-6ff34f4c-994d-47bc-bae9-a254d9a17be8_eeg,6759.745
1436.08695652174,485.754494878906,2155335.51045847,608826.767566724,4329.07758197217,140.636603534688,101.5625,sub-6ff34f4c-994d-47bc-bae9-a254d9a17be8_eeg,6910.62
1446.99029126214,365.990363598202,500613.032808183,241386.918185012,6416.24338115665,37.6212222394683,93.75,sub-6ff34f4c-994d-47bc-bae9-a254d9a17be8_eeg,7060.6
1513.55329949239,487.371190153469,1050753.84446742,512608.353598105,8415.4641080046,60.9126658992608,78.125,sub-6ff34f4c-994d-47bc-bae9-a254d9a17be8_eeg,7210.16
1497.35,512.890838836895,1595430.64430581,581512.412064351,7855.81623396129,74.0231689166084,125,sub-6ff34f4c-994d-47bc-bae9-a254d9a17be8_eeg,7359.975
1467.69607843137,488.146525470963,1763600.15768623,462765.468395474,8171.98122514626,56.628307829622,109.375,sub-6ff34f4c-994d-47bc-bae9-a254d9a17be8_eeg,7509.755
1480.9900990099,496.71208503908,1117297.4500966,537961.545279837,8121.01376810397,66.2431514883931,117.1875,sub-6ff34f4c-994d-47bc-bae9-a254d9a17be8_eeg,7659.445
1454.27184466019,414.752296200286,566097.327851626,413194.797284471,6066.35287113472,68.112555609905,70.3125,sub-6ff34f4c-994d-47bc-bae9-a254d9a17be8_eeg,7809.165
1416.25592417062,286.526755836126,176618.575442369,128355.90782216,4744.53390117561,27.0534283231395,54.6875,sub-6ff34f4c-994d-47bc-bae9-a254d9a17be8_eeg,7959.905
1422.95238095238,302.061256215135,225743.441092129,164029.627089158,4986.83384212508,32.8925390903458,93.75,sub-6ff34f4c-994d-47bc-bae9-a254d9a17be8_eeg,8110.055
1439.83173076923,375.898402802992,519608.097895321,299436.453339252,6344.46572593368,47.1964805665627,70.3125,sub-6ff34f4c-994d-47bc-bae9-a254d9a17be8_eeg,8260.145
1459.48780487805,422.208660542183,595572.115717608,384868.494449282,7257.21513962313,53.0325320449669,54.6875,sub-6ff34f4c-994d-47bc-bae9-a254d9a17be8_eeg,8410.17
1442.02898550725,379.270491802194,320850.420613651,348361.524660548,5763.14318558571,60.4464462260527,54.6875,sub-6ff34f4c-994d-47bc-bae9-a254d9a17be8_eeg,8559.63
1436.89903846154,340.6464079728,202484.778156136,264289.006282726,5021.84931002579,52.6278249239957,39.0625,sub-6ff34f4c-994d-47bc-bae9-a254d9a17be8_eeg,8710.675
1440.41062801932,327.262402485638,112972.511763062,216269.228301425,5357.22073060368,40.3696691207746,62.5,sub-6ff34f4c-994d-47bc-bae9-a254d9a17be8_eeg,8860.295
1424.95238095238,303.123291383214,154461.086739294,182545.718708017,4132.87935752382,44.1691380068224,78.125,sub-6ff34f4c-994d-47bc-bae9-a254d9a17be8_eeg,9009.55
1428.51674641148,317.969369831281,268522.946641884,179576.535656357,5347.03768127055,33.5843033770592,78.125,sub-6ff34f4c-994d-47bc-bae9-a254d9a17be8_eeg,9159.9
1459.17073170732,363.807540590005,344365.844311833,256911.994216915,6443.46209761644,39.8717320478927,78.125,sub-6ff34f4c-994d-47bc-bae9-a254d9a17be8_eeg,9310.08
1438.29326923077,329.959879793466,246646.118656775,204926.642071653,5819.93144190931,35.2111780210977,70.3125,sub-6ff34f4c-994d-47bc-bae9-a254d9a17be8_eeg,9459.82
1448.93203883495,409.330596000549,489785.816181855,381350.009891016,6639.78881041424,57.4340571333961,78.125,sub-6ff34f4c-994d-47bc-bae9-a254d9a17be8_eeg,9610.475
1486.28712871287,466.60366674894,554021.559630073,456491.473248682,8931.69712076634,51.1091528380795,70.3125,sub-6ff34f4c-994d-47bc-bae9-a254d9a17be8_eeg,9760.255
1482.52475247525,416.422290781712,234075.491547087,386792.859484942,7652.13508492012,50.5470506195305,85.9375,sub-6ff34f4c-994d-47bc-bae9-a254d9a17be8_eeg,9910.23
1439.71014492754,374.904405994975,282331.510874035,295434.600698059,6192.15353608262,47.7111232750475,101.5625,sub-6ff34f4c-994d-47bc-bae9-a254d9a17be8_eeg,10060.485
1411.08490566038,341.265768149133,361157.659101679,251428.593650471,4819.80771089871,52.1656897394334,93.75,sub-6ff34f4c-994d-47bc-bae9-a254d9a17be8_eeg,10209.7
1434.92822966507,386.093750593469,348373.373930758,291800.203655712,6619.98511994904,44.0786796901379,70.3125,sub-6ff34f4c-994d-47bc-bae9-a254d9a17be8_eeg,10359.805
1473.96551724138,444.301837231661,342404.240501889,473523.715691062,8288.36972174126,57.1311043773735,78.125,sub-6ff34f4c-994d-47bc-bae9-a254d9a17be8_eeg,10510.14
1481.43564356436,444.718781192234,381988.136137375,445612.218666349,8190.8847744936,54.4034290476145,85.9375,sub-6ff34f4c-994d-47bc-bae9-a254d9a17be8_eeg,10659.705
1466.22549019608,412.987992450901,542963.089362067,386146.164315905,6119.36881083096,63.1022865679294,93.75,sub-6ff34f4c-994d-47bc-bae9-a254d9a17be8_eeg,10810.615
1453.71359223301,393.567697105077,646698.839163182,358932.071235133,6014.93972258646,59.6734277963454,78.125,sub-6ff34f4c-994d-47bc-bae9-a254d9a17be8_eeg,10960.23
1471.47783251232,439.269514295424,477428.268633261,356854.129309795,7585.22512333547,47.0459509780343,78.125,sub-6ff34f4c-994d-47bc-bae9-a254d9a17be8_eeg,11109.725
1548.62694300518,867.652367562585,12476205.8336521,2243615.31116849,16635.4664556356,134.869395886908,101.5625,sub-6ff34f4c-994d-47bc-bae9-a254d9a17be8_eeg,11259.695
1609.70430107527,1352.36011663406,59428751.1527948,5066488.93301031,18269.480197279,277.319818533473,54.6875,sub-6ff34f4c-994d-47bc-bae9-a254d9a17be8_eeg,11409.735
1487.95,1188.13355910493,47392633.585462,4771358.98792984,7891.54321520377,604.616721699932,140.625,sub-6ff34f4c-994d-47bc-bae9-a254d9a17be8_eeg,11559.85
2622.80701754386,12233.2281616286,4403991704.22141,97213057.9251108,9380.74601920172,10363.0412470525,109.375,sub-6ff34f4c-994d-47bc-bae9-a254d9a17be8_eeg,11710.35
2402.9435483871,11719.0842377197,4059086035.30987,95691356.0138194,7095.46680457788,13486.2664641149,140.625,sub-6ff34f4c-994d-47bc-bae9-a254d9a17be8_eeg,11861.62
1890.79113924051,5250.7454284916,1206098109.71916,37125507.0585911,104697.824235186,354.596739042016,171.875,sub-6ff34f4c-994d-47bc-bae9-a254d9a17be8_eeg,12010.54
1903.24840764331,5265.68404699426,1206415192.0957,37132833.1369476,104309.904539341,355.985688041185,78.125,sub-6ff34f4c-994d-47bc-bae9-a254d9a17be8_eeg,12159.585
1315.98684210526,262.559017578086,140903.32839675,127255.862754136,3314.52761175342,38.3933632964415,70.3125,sub-6ff34f4c-994d-47bc-bae9-a254d9a17be8_eeg,12310.535
1382.28110599078,430.140727685238,1204905.32961433,575661.998520924,4209.14796678664,136.764495585171,85.9375,sub-6ff34f4c-994d-47bc-bae9-a254d9a17be8_eeg,12459.69
1397.1261682243,409.196840688415,1202850.36676331,439497.816507165,5240.18038537242,83.8707418801824,101.5625,sub-6ff34f4c-994d-47bc-bae9-a254d9a17be8_eeg,12610.58
1359.54545454545,305.288280150924,431426.772324949,176899.104345321,4472.11125037585,39.5560607599942,109.375,sub-6ff34f4c-994d-47bc-bae9-a254d9a17be8_eeg,12759.645
1323.40707964602,228.368382211943,278615.144201186,101667.059900075,1663.82558383253,61.1043975329974,70.3125,sub-6ff34f4c-994d-47bc-bae9-a254d9a17be8_eeg,12909.565
1448.88888888889,1321.22129152789,91553062.1255697,4731081.57181055,43123.1798020611,109.710869966607,70.3125,sub-6ff34f4c-994d-47bc-bae9-a254d9a17be8_eeg,13060.05
1530.66666666667,1366.85396420034,91831652.7281855,4768432.68742611,45232.1510141501,105.421311622664,54.6875,sub-6ff34f4c-994d-47bc-bae9-a254d9a17be8_eeg,13209.935
1467.18137254902,314.016207805599,59552.5645664088,187361.241132864,5447.61493247701,34.3932608040766,70.3125,sub-6ff34f4c-994d-47bc-bae9-a254d9a17be8_eeg,13359.97
1486.08910891089,345.147674761444,161327.124717854,222928.192078738,6697.76232265211,33.2839807296215,93.75,sub-6ff34f4c-994d-47bc-bae9-a254d9a17be8_eeg,13509.705
1476.78217821782,343.717664536804,288477.445365348,210436.310102864,6857.53777205249,30.6868612463916,164.0625,sub-6ff34f4c-994d-47bc-bae9-a254d9a17be8_eeg,13660.655
1552.74611398964,461.63288399027,605153.030692083,420808.248139726,11174.2734685377,37.6586674135509,218.75,sub-6ff34f4c-994d-47bc-bae9-a254d9a17be8_eeg,13809.895
1826.28048780488,947.986989302531,5246241.4096187,1909874.62027476,18970.319679179,100.676986607187,242.1875,sub-6ff34f4c-994d-47bc-bae9-a254d9a17be8_eeg,13958.965
2121.36690647482,1305.69874204728,12523021.2466326,3247313.47274486,25695.8270194253,126.375129716198,203.125,sub-6ff34f4c-994d-47bc-bae9-a254d9a17be8_eeg,14109.575
1971.85430463576,1891.98322895087,110466396.066403,6753393.2482242,62937.8590675738,107.302557606438,187.5,sub-6ff34f4c-994d-47bc-bae9-a254d9a17be8_eeg,14261.3
1637.52688172043,1545.21075684104,971213.286544651,1247709.68537961,83347.1010968192,14.9700429764224,156.25,sub-6ff34f4c-994d-47bc-bae9-a254d9a17be8_eeg,14404.445
1559.53367875648,731.361665373968,2950855.69444525,1299487.58902281,23091.4784685539,56.2756339223779,203.125,sub-6ff34f4c-994d-47bc-bae9-a254d9a17be8_eeg,14560.31
1638.1043956044,894.237602426688,11156508.4664735,1943701.81888562,18396.7923756533,105.654386873331,164.0625,sub-6ff34f4c-994d-47bc-bae9-a254d9a17be8_eeg,14710.305
1593.28877005348,706.736793055347,6053569.77850166,1096981.73869848,12389.0079325569,88.5447603771196,140.625,sub-6ff34f4c-994d-47bc-bae9-a254d9a17be8_eeg,14861.3
1541.72680412371,446.170792135142,679464.866996435,269221.053811393,11996.2906836553,22.4420248650861,195.3125,sub-6ff34f4c-994d-47bc-bae9-a254d9a17be8_eeg,15009.82
1495.85,388.873553618034,122669.708189257,225253.425194573,11420.7661343143,19.7231448876085,226.5625,sub-6ff34f4c-994d-47bc-bae9-a254d9a17be8_eeg,15160.53
1510.5303030303,453.694754817759,276053.401415602,335183.647311144,14041.088322523,23.8716287236426,164.0625,sub-6ff34f4c-994d-47bc-bae9-a254d9a17be8_eeg,15310.16
1609.94623655914,738.812961234752,7490289.76991103,1003718.40113561,14157.0912109986,70.8986320831093,179.6875,sub-6ff34f4c-994d-47bc-bae9-a254d9a17be8_eeg,15459.7
1555.859375,686.888550381089,7317027.61240049,905892.814846835,9712.24679652092,93.2732491076462,164.0625,sub-6ff34f4c-994d-47bc-bae9-a254d9a17be8_eeg,15610.545
1479.38118811881,548.985938290201,1849533.13274929,808831.199856051,13495.752477972,59.9322787800264,117.1875,sub-6ff34f4c-994d-47bc-bae9-a254d9a17be8_eeg,15760.415
1500.82914572864,575.573004746315,1762532.20922022,896574.673833839,14954.1485631828,59.9549128488138,171.875,sub-6ff34f4c-994d-47bc-bae9-a254d9a17be8_eeg,15910.61
1498.81909547739,426.027856818115,192757.223112372,291804.751404411,11940.8589622976,24.4375008804445,187.5,sub-6ff34f4c-994d-47bc-bae9-a254d9a17be8_eeg,16060.495
1480.39603960396,451.300047551028,673046.771859272,425907.355611138,9903.59659809737,43.0053214902716,109.375,sub-6ff34f4c-994d-47bc-bae9-a254d9a17be8_eeg,16210.515
1439.03846153846,430.133996043339,660784.255037623,423187.558237001,8134.3480716153,52.0247663993761,101.5625,sub-6ff34f4c-994d-47bc-bae9-a254d9a17be8_eeg,16360.035
1418.29383886256,344.495737633391,161898.356108311,256985.234347468,6176.03855739082,41.6100437132044,93.75,sub-6ff34f4c-994d-47bc-bae9-a254d9a17be8_eeg,16509.555
1401.71361502347,300.667884934088,88777.0896138736,172178.318300209,4577.87043305202,37.611007305294,70.3125,sub-6ff34f4c-994d-47bc-bae9-a254d9a17be8_eeg,16660.59
1376.24423963134,262.489541725524,125930.676158071,129695.455755034,3456.52615864271,37.5219077774784,70.3125,sub-6ff34f4c-994d-47bc-bae9-a254d9a17be8_eeg,16810.095
1380,282.828734437037,107660.711737789,159839.022366612,4356.14074454501,36.6928048793581,85.9375,sub-6ff34f4c-994d-47bc-bae9-a254d9a17be8_eeg,16960.5
1388.09302325581,298.197216773203,125843.554087491,181856.047517689,5010.74154173951,36.2932404321449,93.75,sub-6ff34f4c-994d-47bc-bae9-a254d9a17be8_eeg,17109.99
1402.37089201878,294.563778047146,138924.930578076,163752.696313967,4834.58039621053,33.8711290109728,109.375,sub-6ff34f4c-994d-47bc-bae9-a254d9a17be8_eeg,17259.815
1509.82323232323,892.56295207504,17019674.8001147,1876241.52781042,12546.7313874676,149.540264302185,93.75,sub-6ff34f4c-994d-47bc-bae9-a254d9a17be8_eeg,17409.685
1502.41206030151,886.963217129484,17185631.5092979,1819383.60118565,12330.7391308001,147.54862477312,101.5625,sub-6ff34f4c-994d-47bc-bae9-a254d9a17be8_eeg,17559.78
1417.5355450237,298.886970859525,110208.27391704,167889.397945249,5224.47674186261,32.1351603692649,85.9375,sub-6ff34f4c-994d-47bc-bae9-a254d9a17be8_eeg,17709.895
1573,831.447517011732,6967600.54079156,1629556.79385957,13660.7051947706,119.287896973531,85.9375,sub-6ff34f4c-994d-47bc-bae9-a254d9a17be8_eeg,17860.18
1640.93406593407,1100.3733450021,26147303.227071,2719653.47774399,20150.8818386589,134.964489371696,140.625,sub-6ff34f4c-994d-47bc-bae9-a254d9a17be8_eeg,18010.275
1444.37198067633,751.038983764116,19196953.7090689,1144100.05923151,12800.1588997271,89.3817075392636,93.75,sub-6ff34f4c-994d-47bc-bae9-a254d9a17be8_eeg,18160.3
1376.77419354839,328.090660005425,388097.62037194,221943.580009505,5443.92321945873,40.7690503819361,101.5625,sub-6ff34f4c-994d-47bc-bae9-a254d9a17be8_eeg,18310.095
1416.25592417062,325.209765126733,333579.115465482,221040.384480798,4860.21201300354,45.4795765883057,78.125,sub-6ff34f4c-994d-47bc-bae9-a254d9a17be8_eeg,18460.565
1416.32701421801,306.79470750401,166768.620763617,228684.146364794,4188.16986325764,54.6024048286617,70.3125,sub-6ff34f4c-994d-47bc-bae9-a254d9a17be8_eeg,18610.165
1401.14485981308,270.354874673714,114482.043380545,139687.701461674,3784.61144058671,36.9093904762965,70.3125,sub-6ff34f4c-994d-47bc-bae9-a254d9a17be8_eeg,18759.395
1408.70283018868,256.016867393647,85382.1440655606,122884.220537372,3742.37129329606,32.8359243128819,70.3125,sub-6ff34f4c-994d-47bc-bae9-a254d9a17be8_eeg,18910.315
1419.88095238095,260.240246233849,92392.6025304183,126268.853758309,3622.55135913996,34.8563322476364,62.5,sub-6ff34f4c-994d-47bc-bae9-a254d9a17be8_eeg,19060.625
1419.92890995261,258.431384774422,68506.4858339781,125529.920640785,3498.99600307884,35.8759828620348,62.5,sub-6ff34f4c-994d-47bc-bae9-a254d9a17be8_eeg,19208.96
1421.04761904762,267.537230998567,111933.597647783,127264.72219096,4526.01017810611,28.1185231987732,62.5,sub-6ff34f4c-994d-47bc-bae9-a254d9a17be8_eeg,19360.125
1435.81730769231,280.59943648726,128529.009473477,133241.499060899,4789.91219951715,27.8171067674957,70.3125,sub-6ff34f4c-994d-47bc-bae9-a254d9a17be8_eeg,19509.875
1509.69696969697,581.442202295344,2682680.30671838,1041954.87765122,6305.00699400277,165.258322257582,85.9375,sub-6ff34f4c-994d-47bc-bae9-a254d9a17be8_eeg,19659.85
1597.16577540107,939.823959324992,11345368.0431472,3071317.74022095,16406.8049157767,187.197797254699,117.1875,sub-6ff34f4c-994d-47bc-bae9-a254d9a17be8_eeg,19809.91
1512.52525252525,819.200698011808,9351895.53480313,2388591.62387652,15912.144761186,150.111230115436,93.75,sub-6ff34f4c-994d-47bc-bae9-a254d9a17be8_eeg,19960.13
1444.34782608696,541.972695531391,3336222.06199477,624764.131858562,5995.80656228531,104.20018147157,101.5625,sub-6ff34f4c-994d-47bc-bae9-a254d9a17be8_eeg,20109.865
1441.25,532.219057911181,3649402.73494978,627416.156657989,4481.96259744856,139.986923812161,85.9375,sub-6ff34f4c-994d-47bc-bae9-a254d9a17be8_eeg,20259.61
1363.33333333333,327.768495350518,929582.084786484,272271.547431015,2521.20121992042,107.99278743789,93.75,sub-6ff34f4c-994d-47bc-bae9-a254d9a17be8_eeg,20410.135
1313.79385964912,65.6614367746444,11481.7693156406,8868.99872171368,221.615038596853,40.0198415137682,78.125,sub-6ff34f4c-994d-47bc-bae9-a254d9a17be8_eeg,20559.39
1389.23255813953,446.907067489872,1869930.15664872,605884.007398158,5224.97702497173,115.959171591082,109.375,sub-6ff34f4c-994d-47bc-bae9-a254d9a17be8_eeg,20710.01
1449.15048543689,555.824267433562,2257665.84898539,885684.545037885,9304.66370306779,95.1871634808113,101.5625,sub-6ff34f4c-994d-47bc-bae9-a254d9a17be8_eeg,20860.26
1411.08490566038,349.753809634748,624380.414334569,337179.381734988,4342.55534437241,77.645385031637,93.75,sub-6ff34f4c-994d-47bc-bae9-a254d9a17be8_eeg,21009.975
1376.71296296296,136.189269865613,157408.174287565,43805.0422817787,316.531288719481,138.390875856194,85.9375,sub-6ff34f4c-994d-47bc-bae9-a254d9a17be8_eeg,21161.13
1366.49082568807,67.4311555954457,16272.3218537548,11729.9026726565,203.188924749439,57.72904545423,85.9375,sub-6ff34f4c-994d-47bc-bae9-a254d9a17be8_eeg,21310.51
1363.21917808219,25.0966461676184,1114.93057440721,491.662302124056,58.8335546752685,8.35683488508867,85.9375,sub-6ff34f4c-994d-47bc-bae9-a254d9a17be8_eeg,21459.88
1398.64485981308,317.502038804188,986690.251889398,346308.81811428,2672.05036704778,129.604150574789,85.9375,sub-6ff34f4c-994d-47bc-bae9-a254d9a17be8_eeg,21609.78
1440.04807692308,366.085504645103,1252678.63031979,379375.643186142,3556.46096382368,106.672235979855,70.3125,sub-6ff34f4c-994d-47bc-bae9-a254d9a17be8_eeg,21759.805
1408.37264150943,190.319182653458,335377.461420773,40829.7402540445,1316.48164599028,31.0142874975911,93.75,sub-6ff34f4c-994d-47bc-bae9-a254d9a17be8_eeg,21910.515
1378.33333333333,64.0602913686205,12875.3000670302,4626.94553460627,300.464184318925,15.3993246985306,109.375,sub-6ff34f4c-994d-47bc-bae9-a254d9a17be8_eeg,22060.655
1421.57142857143,339.183733279464,2591734.27996063,188054.599513284,497.013457370104,378.369230701229,132.8125,sub-6ff34f4c-994d-47bc-bae9-a254d9a17be8_eeg,22210.485
1426.02380952381,381.478832845104,2741663.51586489,282709.447297127,1594.84409202374,177.264629634355,125,sub-6ff34f4c-994d-47bc-bae9-a254d9a17be8_eeg,22359.75
1397.31308411215,252.722546591518,297556.978894874,167970.888945724,2315.12736608288,72.5536276779127,101.5625,sub-6ff34f4c-994d-47bc-bae9-a254d9a17be8_eeg,22510.33
1480.12376237624,499.882433471348,1229127.77285296,561516.723020024,6497.43409440737,86.4213033731802,109.375,sub-6ff34f4c-994d-47bc-bae9-a254d9a17be8_eeg,22660.59
1483.56435643564,504.544933940483,1196267.87543405,573140.021939233,6434.60676711817,89.0714914962739,109.375,sub-6ff34f4c-994d-47bc-bae9-a254d9a17be8_eeg,22809.355
1401.07476635514,196.141211032863,174046.258785302,109504.779671678,1181.50252661723,92.6826453644603,101.5625,sub-6ff34f4c-994d-47bc-bae9-a254d9a17be8_eeg,22959.575
1422.83333333333,296.495795549126,505295.173045705,210293.910021269,2640.63706366582,79.6375665989222,109.375,sub-6ff34f4c-994d-47bc-bae9-a254d9a17be8_eeg,23110.435
1414.55188679245,296.573499990975,503587.925329532,210373.617840006,2779.94785631267,75.6753826739204,109.375,sub-6ff34f4c-994d-47bc-bae9-a254d9a17be8_eeg,23259.405
1372.58064516129,73.3855508128157,17355.3056213601,9053.93469031758,278.209687433979,32.5435637192402,125,sub-6ff34f4c-994d-47bc-bae9-a254d9a17be8_eeg,23410.64
1390.83720930233,261.225985367896,484083.985848,159611.038642773,1873.31749359252,85.2023424692853,117.1875,sub-6ff34f4c-994d-47bc-bae9-a254d9a17be8_eeg,23560.6
1413.49056603774,324.525296636524,487717.335744948,250665.775236435,3443.55856817404,72.7926562809565,101.5625,sub-6ff34f4c-994d-47bc-bae9-a254d9a17be8_eeg,23709.875
1445.86956521739,369.026490736565,516791.571802428,362486.832731008,4047.18250763092,89.5652301440677,101.5625,sub-6ff34f4c-994d-47bc-bae9-a254d9a17be8_eeg,23859.63
1434.42583732057,379.371197234004,598345.084019797,436884.088880731,3248.42646224843,134.490989393781,93.75,sub-6ff34f4c-994d-47bc-bae9-a254d9a17be8_eeg,24009.535
1390.55813953488,221.557602299514,283069.560645392,153692.403206893,1368.60414062962,112.298654259651,117.1875,sub-6ff34f4c-994d-47bc-bae9-a254d9a17be8_eeg,24160.245
1410.28301886792,241.872954576927,427441.515494997,128379.251959351,1127.03472719619,113.908869763694,109.375,sub-6ff34f4c-994d-47bc-bae9-a254d9a17be8_eeg,24309.33
1438.40579710145,279.054609899274,458181.415842648,177008.634205649,1882.98882792395,94.0040809486935,140.625,sub-6ff34f4c-994d-47bc-bae9-a254d9a17be8_eeg,24460.63
1437.11538461538,172.194127483918,99249.1364741151,71088.0215343366,1255.70948374302,56.611837733707,101.5625,sub-6ff34f4c-994d-47bc-bae9-a254d9a17be8_eeg,24609.75
1420.28436018957,139.300684345029,76959.3519174366,39721.8365613434,940.176981189274,42.2493183263192,109.375,sub-6ff34f4c-994d-47bc-bae9-a254d9a17be8_eeg,24759.815
1441.73913043478,437.325687399488,3392115.55165806,426943.861332912,4643.49932710764,91.9444219234653,125,sub-6ff34f4c-994d-47bc-bae9-a254d9a17be8_eeg,24910.01
1496.45,592.912195741744,4894243.6835793,802936.55480617,9263.42645785595,86.6781377775425,156.25,sub-6ff34f4c-994d-47bc-bae9-a254d9a17be8_eeg,25059.495
1602.48663101604,813.100956304253,8735578.03475886,1229543.87948124,13659.7669924426,90.0120682996643,195.3125,sub-6ff34f4c-994d-47bc-bae9-a254d9a17be8_eeg,25209.855
1570.36842105263,713.076181992875,8436130.58329366,870066.989214355,9498.69217263657,91.5986088822636,109.375,sub-6ff34f4c-994d-47bc-bae9-a254d9a17be8_eeg,25360.155
1516.42131979695,339.498444816678,202759.834078711,275028.269232281,3651.74507849933,75.3142027496899,85.9375,sub-6ff34f4c-994d-47bc-bae9-a254d9a17be8_eeg,25509.52
1794.37125748503,996.615232463627,7571202.57451102,2151997.4830617,17418.4997707878,123.546660813509,78.125,sub-6ff34f4c-994d-47bc-bae9-a254d9a17be8_eeg,25659.945
2162.37410071942,1649.92515541003,49317131.1587637,3999372.20832922,23530.9728750534,169.962042350115,101.5625,sub-6ff34f4c-994d-47bc-bae9-a254d9a17be8_eeg,25808.255
2359.2125984252,1703.55993101804,48673964.079261,4015081.14733733,22866.436109882,175.588409494305,117.1875,sub-6ff34f4c-994d-47bc-bae9-a254d9a17be8_eeg,25959.605
2056.23287671233,1320.94370153909,14871121.7318084,3537747.60719469,28166.2602518347,125.602319071246,101.5625,sub-6ff34f4c-994d-47bc-bae9-a254d9a17be8_eeg,26108.825
1664.13407821229,858.543288033665,9465123.73552016,1921814.99868048,11815.1800481803,162.6564293429,101.5625,sub-6ff34f4c-994d-47bc-bae9-a254d9a17be8_eeg,26260.69
1566.80628272251,696.62929744993,7208488.14273522,1559400.89804036,6307.70396602255,247.221636658968,148.4375,sub-6ff34f4c-994d-47bc-bae9-a254d9a17be8_eeg,26410.45
1786.90476190476,1765.19941788099,159847048.902136,2770610.79312629,18761.7279790287,147.673540316926,140.625,sub-6ff34f4c-994d-47bc-bae9-a254d9a17be8_eeg,26559.995
2192.00729927007,2260.57111958705,193119012.451196,4684559.7956433,25042.7512632231,187.062505489278,109.375,sub-6ff34f4c-994d-47bc-bae9-a254d9a17be8_eeg,26709.71
2133.21428571429,2056.61190886354,100489718.013115,9470383.45491114,42674.7568702266,221.920033046948,93.75,sub-6ff34f4c-994d-47bc-bae9-a254d9a17be8_eeg,26860.195
1954.93464052288,1890.20927786346,96898923.8722747,8927852.97475953,60370.1893425445,147.885124628354,125,sub-6ff34f4c-994d-47bc-bae9-a254d9a17be8_eeg,27010.015
1717.6,1225.65380629016,28898187.0924772,4150783.59090118,29157.8771451321,142.355479798506,125,sub-6ff34f4c-994d-47bc-bae9-a254d9a17be8_eeg,27158.845
1717.95977011494,886.650841727006,9287833.22859929,1665245.35434321,10654.4977944308,156.295058338053,156.25,sub-6ff34f4c-994d-47bc-bae9-a254d9a17be8_eeg,27310.52
1805.30120481928,1170.26903133233,21127687.7496611,3566707.63927866,13007.3271239029,274.207575876547,132.8125,sub-6ff34f4c-994d-47bc-bae9-a254d9a17be8_eeg,27459.425
2029.31972789116,2253.77868693371,147524113.500793,9611326.12046923,27462.3789850154,349.981555702569,101.5625,sub-6ff34f4c-994d-47bc-bae9-a254d9a17be8_eeg,27609.445
2020.47297297297,2132.70981038654,131282021.724426,8411952.68464206,26290.4648685093,319.962112755104,85.9375,sub-6ff34f4c-994d-47bc-bae9-a254d9a17be8_eeg,27760.505
1920.76433121019,1662.93436253636,54654999.5270223,6708331.09182736,47568.2933349498,141.025263290213,85.9375,sub-6ff34f4c-994d-47bc-bae9-a254d9a17be8_eeg,27907.755
1858.35403726708,1618.75625253595,56920055.7564701,7218670.34307206,45611.0436996688,158.265844355684,132.8125,sub-6ff34f4c-994d-47bc-bae9-a254d9a17be8_eeg,28059.535
1571.18421052632,678.045387785745,2388211.49304419,1292545.69127342,10813.6358834056,119.529241155321,132.8125,sub-6ff34f4c-994d-47bc-bae9-a254d9a17be8_eeg,28210.685
1500.35175879397,542.542068270149,1095889.03998997,865615.884393355,8126.11879792844,106.522671636799,140.625,sub-6ff34f4c-994d-47bc-bae9-a254d9a17be8_eeg,28360.085
1458.17073170732,376.812866545278,573805.163488399,368299.449954937,5064.25482231843,72.725299748311,140.625,sub-6ff34f4c-994d-47bc-bae9-a254d9a17be8_eeg,28510.59
1514.16243654822,458.888891014017,1461285.40321034,399287.177751069,4331.31849336266,92.1860579781744,132.8125,sub-6ff34f4c-994d-47bc-bae9-a254d9a17be8_eeg,28660.89
1628.34239130435,704.752870801915,7586294.4617249,1171553.02728182,7461.07474425292,157.022019942132,117.1875,sub-6ff34f4c-994d-47bc-bae9-a254d9a17be8_eeg,28809.515
1714.1091954023,791.878891471977,6217637.25239567,1578785.86091363,11393.927609969,138.563795993603,78.125,sub-6ff34f4c-994d-47bc-bae9-a254d9a17be8_eeg,28960.615
1619.10326086957,627.505587626891,2358870.4385074,865900.446974579,8986.30927718858,96.3577393416267,109.375,sub-6ff34f4c-994d-47bc-bae9-a254d9a17be8_eeg,29110.565
1500.22613065327,456.647670607566,1456974.82562649,507303.908860653,5684.26448641219,89.2470626715778,140.625,sub-6ff34f4c-994d-47bc-bae9-a254d9a17be8_eeg,29260.305
1618.16216216216,955.107765189737,9608855.82860607,2359438.59356902,21849.9311047623,107.983800143643,226.5625,sub-6ff34f4c-994d-47bc-bae9-a254d9a17be8_eeg,29409.82
1740.29069767442,1056.04161452514,10075300.4191092,2811037.72636264,23840.4733504318,117.910315162082,187.5,sub-6ff34f4c-994d-47bc-bae9-a254d9a17be8_eeg,29560.205
2054.45205479452,2232.35789394329,116642048.087716,9229615.19053083,68277.7215590537,135.17755103395,117.1875,sub-6ff34f4c-994d-47bc-bae9-a254d9a17be8_eeg,29710.525
2558.30508474576,3357.4718026096,235445703.601124,17108338.0801731,131659.266844322,129.944047921842,109.375,sub-6ff34f4c-994d-47bc-bae9-a254d9a17be8_eeg,29859.535
